-e
-s
-v
-b -n
-b -t
-e -b
-e -s
-e -v
-n -e
-n -t
-s -b
-s -n
-s -v
-t -e
-t -s
-v -b
-v -n
-v -t
-b -e -s
-b -e -v
-b -n -s
-b -n -v
-b -s -n
-b -s -v
-b -t -n
-b -t -v
-b -v -n
-b -v -t
-e -b -s
-e -b -v
-e -n -s
-e -n -v
-e -s -n
-e -s -v
-e -t -n
-e -t -v
-e -v -n
-e -v -t
-n -b -s
-n -b -v
-n -e -s
-n -e -v
-n -s -e
-n -s -v
-n -t -e
-n -t -v
-n -v -e
-n -v -t
-s -b -n
-s -b -v
-s -e -n
-s -e -v
-s -n -e
-s -n -v
-s -t -e
-s -t -v
-s -v -e
-s -v -t
-t -b -n
-t -b -v
-t -e -n
-t -e -v
-t -n -e
-t -n -v
-t -s -e
-t -s -v
-t -v -e
-t -v -s
-v -b -n
-v -b -t
-v -e -n
-v -e -t
-v -n -e
-v -n -t
-v -s -e
-v -s -t
-v -t -e
-v -t -s
-b -e -n -t
-b -e -s -n
-b -e -s -v
-b -e -t -s
-b -e -v -n
-b -e -v -t
-b -n -e -t
-b -n -s -e
-b -n -s -v
-b -n -t -s
-b -n -v -e
-b -n -v -t
-b -s -e -t
-b -s -n -e
-b -s -n -v
-b -s -t -n
-b -s -v -e
-b -s -v -t
-b -t -e -s
-b -t -n -e
-b -t -n -v
-b -t -s -n
-b -t -v -e
-b -t -v -s
-b -v -e -s
-b -v -n -e
-b -v -n -t
-b -v -s -n
-b -v -t -e
-b -v -t -s
-e -b -n -t
-e -b -s -n
-e -b -s -v
-e -b -t -s
-e -b -v -n
-e -b -v -t
-e -n -b -t
-e -n -s -b
-e -n -s -v
-e -n -t -s
-e -n -v -b
-e -n -v -t
-e -s -b -t
-e -s -n -b
-e -s -n -v
-e -s -t -n
-e -s -v -b
-e -s -v -t
-e -t -b -s
-e -t -n -b
-e -t -n -v
-e -t -s -n
-e -t -v -b
-e -t -v -s
-e -v -b -s
-e -v -n -b
-e -v -n -t
-e -v -s -n
-e -v -t -b
-e -v -t -s
-n -b -e -t
-n -b -s -e
-n -b -s -v
-n -b -t -s
-n -b -v -e
-n -b -v -t
-n -e -b -t
-n -e -s -b
-n -e -s -v
-n -e -t -s
-n -e -v -b
-n -e -v -t
-n -s -b -t
-n -s -e -b
-n -s -e -v
-n -s -t -e
-n -s -v -b
-n -s -v -t
-n -t -b -s
-n -t -e -b
-n -t -e -v
-n -t -s -e
-n -t -v -b
-n -t -v -s
-n -v -b -s
-n -v -e -b
-n -v -e -t
-n -v -s -e
-n -v -t -b
-n -v -t -s
-s -b -e -t
-s -b -n -e
-s -b -n -v
-s -b -t -n
-s -b -v -e
-s -b -v -t
-s -e -b -t
-s -e -n -b
-s -e -n -v
-s -e -t -n
-s -e -v -b
-s -e -v -t
-s -n -b -t
-s -n -e -b
-s -n -e -v
-s -n -t -e
-s -n -v -b
-s -n -v -t
-s -t -b -n
-s -t -e -b
-s -t -e -v
-s -t -n -e
-s -t -v -b
-s -t -v -n
-s -v -b -n
-s -v -e -b
-s -v -e -t
-s -v -n -e
-s -v -t -b
-s -v -t -n
-t -b -e -s
-t -b -n -e
-t -b -n -v
-t -b -s -n
-t -b -v -e
-t -b -v -s
-t -e -b -s
-t -e -n -b
-t -e -n -v
-t -e -s -n
-t -e -v -b
-t -e -v -s
-t -n -b -s
-t -n -e -b
-t -n -e -v
-t -n -s -e
-t -n -v -b
-t -n -v -s
-t -s -b -n
-t -s -e -b
-t -s -e -v
-t -s -n -e
-t -s -v -b
-t -s -v -n
-t -v -b -n
-t -v -e -b
-t -v -e -s
-t -v -n -e
-t -v -s -b
-t -v -s -n
-v -b -e -s
-v -b -n -e
-v -b -n -t
-v -b -s -n
-v -b -t -e
-v -b -t -s
-v -e -b -s
-v -e -n -b
-v -e -n -t
-v -e -s -n
-v -e -t -b
-v -e -t -s
-v -n -b -s
-v -n -e -b
-v -n -e -t
-v -n -s -e
-v -n -t -b
-v -n -t -s
-v -s -b -n
-v -s -e -b
-v -s -e -t
-v -s -n -e
-v -s -t -b
-v -s -t -n
-v -t -b -n
-v -t -e -b
-v -t -e -s
-v -t -n -e
-v -t -s -b
-v -t -s -n
